8 Conditional Manatees
…
Rank order the Pareto k value and taking a look at the top values

tibble(k = b8.3$criteria$loo$diagnostics$pareto_k,
       row = 1:170) %>% 
  arrange(desc(k))

# A tibble: 170 × 2
       k   row
   <dbl> <int>
 1 0.422   145
 2 0.390    93
 3 0.272    14
 4 0.221   150
 5 0.209    27
 6 0.177   161
 7 0.160    99
 8 0.156    85
 9 0.145    21
10 0.139   118
# ℹ 160 more rows
…
