7 Ulysses’ Compass
…
prob

# A tibble: 28,000 × 4
       s species     logprob  prob
   <int> <chr>         <dbl> <dbl>
 1     1 afarensis     0.387 1.47 
 2     1 africanus     0.459 1.58 
 3     1 habilis       0.477 1.61 
 4     1 boisei        0.306 1.36 
 5     1 rudolfensis  -0.172 0.842
 6     1 ergaster     -0.319 0.727
 7     1 sapiens       0.142 1.15 
 8     2 afarensis     0.553 1.74 
 9     2 africanus     0.683 1.98 
10     2 habilis       0.842 2.32 
# ℹ 27,990 more rows
…
