Chapter 2 BRMS
…
3
4
64

(
  d <- 
    tibble(position = c((1:4^1) / 4^0,
                        (1:4^2) / 4^1,
                        (1:4^3) / 4^2),
           draw = rep(1:3, times = c(4^1, 4^2, 4^3)),
           fill = rep(c("b", "w"), times = c(1, 3)) %>%
             rep(., times = c(4^0 + 4^1 + 4^2)))
)

# A tibble: 84 × 3
   position  draw fill 
      <dbl> <int> <chr>
 1     1        1 b    
 2     2        1 w    
 3     3        1 w    
 4     4        1 w    
 5     0.25     2 b    
 6     0.5      2 w    
 7     0.75     2 w    
 8     1        2 w    
 9     1.25     2 b    
10     1.5      2 w    
# ℹ 74 more rows
…
(
  lines_2 <-
    tibble(x = rep((1:4^2) / 4, each = 4),
           xend = (1:4^3) / (4^2),
           y = 2,
           yend = 3)
)

# A tibble: 64 × 4
       x   xend     y  yend
   <dbl>  <dbl> <dbl> <dbl>
 1  0.25 0.0625     2     3
 2  0.25 0.125      2     3
 3  0.25 0.188      2     3
 4  0.25 0.25       2     3
 5  0.5  0.312      2     3
 6  0.5  0.375      2     3
 7  0.5  0.438      2     3
 8  0.5  0.5        2     3
 9  0.75 0.562      2     3
10  0.75 0.625      2     3
# ℹ 54 more rows
…
Make the dot centered

d <- 
  d %>%
  mutate(denominator = ifelse(draw == 1, .5,
                              ifelse(draw == 2, .5 / 4,
                                     .5 / 4^2))) %>%
  mutate(position = position - denominator)

d

# A tibble: 84 × 4
   position  draw fill  denominator
      <dbl> <int> <chr>       <dbl>
 1    0.5       1 b           0.5  
 2    1.5       1 w           0.5  
 3    2.5       1 w           0.5  
 4    3.5       1 w           0.5  
 5    0.125     2 b           0.125
 6    0.375     2 w           0.125
 7    0.625     2 w           0.125
 8    0.875     2 w           0.125
 9    1.12      2 b           0.125
10    1.38      2 w           0.125
# ℹ 74 more rows
…
(
  lines_2 <-
    lines_2 %>%
    mutate(x = x - 0.5 / 4^1,
           xend = xend - 0.5 / 4^2)
)

# A tibble: 64 × 4
       x   xend     y  yend
   <dbl>  <dbl> <dbl> <dbl>
 1 0.125 0.0312     2     3
 2 0.125 0.0938     2     3
 3 0.125 0.156      2     3
 4 0.125 0.219      2     3
 5 0.375 0.281      2     3
 6 0.375 0.344      2     3
 7 0.375 0.406      2     3
 8 0.375 0.469      2     3
 9 0.625 0.531      2     3
10 0.625 0.594      2     3
# ℹ 54 more rows
…
