10 Big Entropy and the Generalized Linear Model
…
set.seed(10)

(
  d <-
    tibble(x = rep(0:1, each = 100)) %>% 
    mutate(y = rnorm(n = n(), mean = 100, sd = 10 + x * 10))
)

# A tibble: 200 × 2
       x     y
   <int> <dbl>
 1     0 100. 
 2     0  98.2
 3     0  86.3
 4     0  94.0
 5     0 103. 
 6     0 104. 
 7     0  87.9
 8     0  96.4
 9     0  83.7
10     0  97.4
# ℹ 190 more rows
…
