Chapter 3 Practice BRMS
…
3M1

n_success <- 8
n_trials <- 15

(
  d <-
    tibble(p_grid = seq(from = 0, to = 1, length.out = 1e4),
           prior = rep(1, 1e4)) |> 
    mutate(likelihood = dbinom(n_success, size = n_trials, prob = p_grid)) |> 
    mutate(posterior = (likelihood * prior) / sum(likelihood * prior))
)

# A tibble: 10,000 × 4
     p_grid prior likelihood posterior
      <dbl> <dbl>      <dbl>     <dbl>
 1 0            1   0         0       
 2 0.000100     1   6.44e-29  1.03e-31
 3 0.000200     1   1.65e-26  2.63e-29
 4 0.000300     1   4.22e-25  6.75e-28
 5 0.000400     1   4.21e-24  6.73e-27
 6 0.000500     1   2.51e-23  4.01e-26
 7 0.000600     1   1.08e-22  1.72e-25
 8 0.000700     1   3.69e-22  5.91e-25
 9 0.000800     1   1.07e-21  1.72e-24
10 0.000900     1   2.75e-21  4.41e-24
# ℹ 9,990 more rows
…
