Chapter 3 BRMS
…
# how many grid points would you like?
n <- 1000
n_success <- 6
n_trials <- 9

(
  d <-
    tibble(p_grid = seq(from = 0, to = 1, length.out = n),
           # note we're stil using a flat uniform prior
           prior = 1) |>
    mutate(likelihood = dbinom(n_success, size = n_trials, prob = p_grid)) |>
    mutate(posterior = likelihood * prior / sum(likelihood * prior))
)

# A tibble: 1,000 × 4
    p_grid prior likelihood posterior
     <dbl> <dbl>      <dbl>     <dbl>
 1 0           1   0         0       
 2 0.00100     1   8.43e-17  8.43e-19
 3 0.00200     1   5.38e-15  5.38e-17
 4 0.00300     1   6.11e-14  6.11e-16
 5 0.00400     1   3.42e-13  3.42e-15
 6 0.00501     1   1.30e-12  1.30e-14
 7 0.00601     1   3.87e-12  3.88e-14
 8 0.00701     1   9.73e-12  9.74e-14
 9 0.00801     1   2.16e-11  2.16e-13
10 0.00901     1   4.37e-11  4.38e-13
# ℹ 990 more rows
…
# A tibble: 1 × 1
    sum
  <dbl>
1 0.163

# A more explicit approach for the same computation
samples |>
  filter(p_grid < .5) |>
  mutate(probability = n / sum(n))

# A tibble: 1,629 × 5
   p_grid prior likelihood posterior probability
    <dbl> <dbl>      <dbl>     <dbl>       <dbl>
 1  0.491     1    0.156   0.00156             1
 2  0.449     1    0.116   0.00116             1
 3  0.260     1    0.0106  0.000106            1
 4  0.236     1    0.00650 0.0000651           1
 5  0.390     1    0.0674  0.000674            1
 6  0.489     1    0.154   0.00154             1
 7  0.203     1    0.00299 0.0000299           1
 8  0.470     1    0.135   0.00135             1
 9  0.484     1    0.149   0.00149             1
10  0.324     1    0.0302  0.000302            1
# ℹ 1,619 more rows
…
